Question7/RegFile.vcd
$date
	Sun May 19 15:57:00 2024
$end
$version
	Icarus Verilog
$end
$timescale
	1s
$end
$scope module TBB $end
$var wire 8 ! read_data2 [7:0] $end
$var wire 8 " read_data1 [7:0] $end
$var reg 1 # clk $end
$var reg 2 $ read_reg1 [1:0] $end
$var reg 2 % read_reg2 [1:0] $end
$var reg 1 & reg_write_enable $end
$var reg 1 ' rst $end
$var reg 8 ( write_data [7:0] $end
$var reg 2 ) write_reg [1:0] $end
$scope module rf $end
$var wire 1 # clk $end
$var wire 2 * read_reg1 [1:0] $end
$var wire 2 + read_reg2 [1:0] $end
$var wire 1 & reg_write_enable $end
$var wire 1 ' rst $end
$var wire 8 , write_data [7:0] $end
$var wire 2 - write_reg [1:0] $end
$var reg 8 . read_data1 [7:0] $end
$var reg 8 / read_data2 [7:0] $end
$upscope $end
$upscope $end
$enddefinitions $end
#0
$dumpvars
bx /
bx .
b0 -
b0 ,
bx +
bx *
b0 )
b0 (
x'
1&
bx %
bx $
0#
bx "
bx !
$end
#5
b0 "
b0 .
b0 $
b0 *
1#
#10
0#
#15
1#
#20
0#
#25
1#
b1 (
b1 ,
b1 )
b1 -
#30
b1 "
b1 .
0#
b1 $
b1 *
#35
1#
#40
0#
#45
1#
#50
0#
b10 (
b10 ,
b10 )
b10 -
#55
b10 "
b10 .
1#
b10 $
b10 *
#60
0#
#65
1#
#70
0#
#75
1#
b11 (
b11 ,
b11 )
b11 -
#80
b11 "
b11 .
0#
b11 $
b11 *
